
{
  "editor" : [
      {
          "icon":"",
          "key":"setting",
          "header":"Settings",
          "disable":false,
          "fields": [
              {
                  "key": "backgroundImage",
                  "header":"Template background image",
                  "type":"image"
              },
              {
                  "key":"cards",
                  "header": "Card",
                  "type":"array",
                  "fields": [
                      {
                          "key":"card1",
                          "header":"Card 1",
                          "type":"array",
                          "fields":
                          [
                              {
                                  "key":"image",
                                  "header":"Image 1",
                                  "type":"image"
                              },
                              {
                                  "key":"label",
                                  "header":"Label 1",
                                  "type":"text"
                              }

                          ]
                      },
                      {
                          "key":"card2",
                          "header":"Card 2",
                          "type":"array",
                          "fields":[
                              {
                                  "key":"image",
                                  "header":"Image 2",
                                  "type":"image"
                              },
                              {
                                  "key":"label",
                                  "header":"Label 2",
                                  "type":"text"
                              }
                          ]
                      },
                      {
                        "key":"card3",
                        "header":"Card 3",
                        "type":"array",
                        "fields":[
                            {
                                "key":"image",
                                "header":"Image 3",
                                "type":"image"
                            },
                            {
                                "key":"label",
                                "header":"Label 3",
                                "type":"text"
                            }
                        ]
                    },
                    {
                        "key":"card4",
                        "header":"Card 4",
                        "type":"array",
                        "fields":[
                            {
                                "key":"image",
                                "header":"Image 4",
                                "type":"image"
                            },
                            {
                                "key":"label",
                                "header":"Label 4",
                                "type":"text"
                            }
                        ]
                    }
                  ]

              }
          ]
      }
  ],
  "config":{

      "settings": {
          "backgroundImage":"https://i.ytimg.com/vi/ix1ZMl9cH6A/maxresdefault.jpg",
         "cards":{
             "card1": {
                 "image":"./assets/image1.png",
                 "label":"Image 1 text"
             },
         
             "card2": {
                 "image":"./assets/image2.png",
                 "label":"Image 2 text"
             },
             "card3": {
                "image":"./assets/image3.png",
                "label":"Image 3 text"
            },
            "card4": {
                "image":"./assets/image4.png",
                "label":"Image 4 text"
            }
         }

      }

      }
}
